{
  "id": "Backstop_Default",
  "viewports": [
    {
      "label": "phone",
      "width": 320,
      "height": 480
    },
    {
      "label": "tablet",
      "width": 1024,
      "height": 768
    },
    {
      "label": "desktop",
      "width": 1500,
      "height": 900
    }
  ],
  "onBeforeScript": "chromy/onBefore.js",
  "onReadyScript": "chromy/onReady.js",
  "scenarios": [
    {
      "label": "MainIndexPage",
      "cookiePath": "backstop_data/engine_scripts/cookies.json",
      "url": "http://localhost:3300",
      "referenceUrl": "",
      "readyEvent": "",
      "readySelector": "",
      "delay": 0,
      "hideSelectors": [],
      "removeSelectors": [],
      "hoverSelector": "",
      "clickSelector": "",
      "postInteractionWait": 0,
      "selectors": ["viewport", "document"],
      "selectorExpansion": true,
      "misMatchThreshold" : 0.1,
      "requireSameDimensions": true
    }
  ],
  "paths": {
    "bitmaps_reference": "_Testing/backstop_data/bitmaps_reference",
    "bitmaps_test": "_Testing/backstop_data/bitmaps_test",
    "engine_scripts": "_Testing/backstop_data/engine_scripts",
    "html_report": "_Testing/backstop_data/html_report",
    "ci_report": "_Testing/backstop_data/ci_report"
  },
  "report": ["browser"],
  "engine": "chrome",
  "engineFlags": [],
  "asyncCaptureLimit": 5,
  "asyncCompareLimit": 50,
  "debug": false,
  "debugWindow": false
}
